Journal
…
## Rows: 231
## Columns: 9
## $ bike.id        <dbl> 2875, 2873, 2874, 2876, 2877, 2225, 2091, 2086, 2088, …
## $ model          <chr> "Aeroad CF SL Disc 8.0 Di2", "Aeroad CF SLX Disc 9.0 E…
## $ model.year     <dbl> 2020, 2020, 2020, 2020, 2020, 2019, 2019, 2021, 2020, …
## $ frame.material <chr> "carbon", "carbon", "carbon", "carbon", "carbon", "car…
## $ weight         <dbl> 7.60, 7.27, 7.10, 7.73, 7.83, 6.80, 6.80, 7.60, 7.30, …
## $ price          <dbl> 4579, 6919, 6429, 5069, 3609, 6139, 5359, 2629, 3699, …
## $ category       <chr> "Road - Race - Aeroad", "Road - Race - Aeroad", "Road …
## $ gender         <chr> "unisex", "unisex", "unisex", "unisex", "unisex", "uni…
## $ url            <chr> "https://www.canyon.com/en-de/road-bikes/race-bikes/ae…

bikes %>% select(bike.id, model, price)

## # A tibble: 231 x 3
##    bike.id model                       price
##      <dbl> <chr>                       <dbl>
##  1    2875 Aeroad CF SL Disc 8.0 Di2    4579
##  2    2873 Aeroad CF SLX Disc 9.0 ETAP  6919
##  3    2874 Aeroad CF SLX Disc 9.0 Di2   6429
##  4    2876 Aeroad CF SL Disc 8.0 ETAP   5069
##  5    2877 Aeroad CF SL Disc 8.0        3609
##  6    2225 Aeroad CF SLX 9.0 SL         6139
##  7    2091 Aeroad CF SLX 9.0 Di2        5359
##  8    2086 Aeroad CF SL 7.0             2629
##  9    2088 Aeroad CF SL 8.0 Di2         3699
## 10    2120 Aeroad WMN CF SL 8.0         3219
## # … with 221 more rows
…
# Challenge 1 ----
tbl_1 <- assignee_tbl %>% filter(type == 2) %>%
  left_join(patent_assignee_tbl, by = c("id" = "assignee_id")) %>%
  filter(!is.na(organization)) %>%
  group_by(organization) %>%
  count(organization, sort=TRUE) %>%
  slice(1:10)
tbl_1

## # A tibble: 226,686 x 2
## # Groups:   organization [226,686]
##    organization                                                                n
##    <chr>                                                                   <int>
##  1 "!j Incorporated"                                                           2
##  2 "!maginethis Renovations, LLC"                                              3
##  3 ".Decimal, Inc."                                                            7
##  4 ".Engineering, Inc."                                                        2
##  5 ".PEF Industries, Inc."                                                     2
##  6 ".S. Philips Corporation"                                                   2
##  7 ".Vapex Technologies, Inc."                                                 2
##  8 "'brellabox Inc."                                                           2
##  9 "\"\"\"\"\"\"\"\"\"\"\"\"\"\"\"\"\"\"\"\"\"\"\"\"\"\"\"\"\"\"\"A\"\"\"…     2
## 10 "\"\"\"\"\"\"\"\"\"\"\"\"\"\"\"\"\"\"\"\"\"\"\"\"\"\"\"\"\"\"\"A\"\"\"…     2
## # … with 226,676 more rows
…
# Challenge 3 ----
top_sector <- uspc_tbl %>% group_by(mainclass_id) %>%
  count(mainclass_id, sort=TRUE) %>%
  slice(1)
top_sector

## # A tibble: 1,237 x 2
## # Groups:   mainclass_id [1,237]
##    mainclass_id     n
##    <chr>        <int>
##  1 -0T              1
##  2 ;16              1
##  3 ;47              1
##  4 ???              1
##  5 0                4
##  6 00               3
##  7 002              6
##  8 004             12
##  9 008              8
## 10 01               1
## # … with 1,227 more rows
…
